# Blender MTL File: 'None'
# Material Count: 1

newmtl Material.005
Ns 385.429280
Ka 1.000000 1.000000 1.000000
Kd 0.371429 0.220388 0.137107
Ks 0.500000 0.500000 0.500000
Ke 0.000000 0.000000 0.000000
Ni 1.450000
d 1.000000
illum 2
map_Kd tv_emit.png
map_Ke C:\\obj_fbx\\3december-day-16-tv-time\\source\\tv_emit.jpg
