# Blender MTL File: 'None'
# Material Count: 1

newmtl Front.001
Ns 0.000000
Ka 1.000000 1.000000 1.000000
Kd 0.600000 0.600000 0.600000
Ks 0.900000 0.900000 0.900000
Ke 0.000000 0.000000 0.000000
Ni 1.450000
d 1.000000
illum 2
map_Kd bullet.png
map_Ke C:\\obj_fbx\\fluxs-pit-stop\\source\\Textures\\Emit.jpg
