^C:\K020G1385\CG4\CG4_1\EFFECT\EFFEKSEER\DEV\CPP\EFFEKSEER\CMAKELISTS.TXT
setlocal
"C:\Program Files\CMake\bin\cmake.exe" -SC:/K020G1385/CG4/CG4_1/Effect/Effekseer -BC:/K020G1385/CG4/CG4_1/Effect/Effekseer --check-stamp-file C:/K020G1385/CG4/CG4_1/Effect/Effekseer/Dev/Cpp/Effekseer/CMakeFiles/generate.stamp
if %errorlevel% neq 0 goto :cmEnd
:cmEnd
endlocal & call :cmErrorLevel %errorlevel% & goto :cmDone
:cmErrorLevel
exit /b %1
:cmDone
if %errorlevel% neq 0 goto :VCEnd
