# Blender MTL File: 'None'
# Material Count: 1

newmtl metal
Ns 56.806129
Ka 0.500000 0.500000 0.500000
Kd 0.237628 0.186975 0.831000
Ks 0.500000 0.500000 0.500000
Ke 0.000000 0.000000 0.000000
Ni 1.450000
d 1.000000
illum 3
map_Kd metal_dif.jpg
