^C:\K020G1385\CG4\CG4_1\EFFECT\EFFEKSEER\DEV\CPP\EFFEKSEERMATERIALCOMPILER\COMMON\SHADERGENERATORCOMMON.CPP|C:\K020G1385\CG4\CG4_1\EFFECT\EFFEKSEER\DEV\CPP\EFFEKSEERMATERIALCOMPILER\DIRECTX12\EFFEKSEERMATERIALCOMPILERDX12.CPP|C:\K020G1385\CG4\CG4_1\EFFECT\EFFEKSEER\DEV\CPP\EFFEKSEERMATERIALCOMPILER\HLSLGENERATOR\SHADERGENERATOR.CPP|C:\K020G1385\CG4\CG4_1\EFFECT\EFFEKSEER\DEV\CPP\EFFEKSEERRENDERERCOMMON\EFFEKSEERRENDERER.COMMONUTILS.CPP|C:\K020G1385\CG4\CG4_1\EFFECT\EFFEKSEER\DEV\CPP\EFFEKSEERRENDERERCOMMON\EFFEKSEERRENDERER.DDSTEXTURELOADER.CPP|C:\K020G1385\CG4\CG4_1\EFFECT\EFFEKSEER\DEV\CPP\EFFEKSEERRENDERERCOMMON\EFFEKSEERRENDERER.INDEXBUFFERBASE.CPP|C:\K020G1385\CG4\CG4_1\EFFECT\EFFEKSEER\DEV\CPP\EFFEKSEERRENDERERCOMMON\EFFEKSEERRENDERER.MODELRENDERERBASE.CPP|C:\K020G1385\CG4\CG4_1\EFFECT\EFFEKSEER\DEV\CPP\EFFEKSEERRENDERERCOMMON\EFFEKSEERRENDERER.PNGTEXTURELOADER.CPP|C:\K020G1385\CG4\CG4_1\EFFECT\EFFEKSEER\DEV\CPP\EFFEKSEERRENDERERCOMMON\EFFEKSEERRENDERER.RENDERER.CPP|C:\K020G1385\CG4\CG4_1\EFFECT\EFFEKSEER\DEV\CPP\EFFEKSEERRENDERERCOMMON\EFFEKSEERRENDERER.RENDERER_IMPL.CPP|C:\K020G1385\CG4\CG4_1\EFFECT\EFFEKSEER\DEV\CPP\EFFEKSEERRENDERERCOMMON\EFFEKSEERRENDERER.RENDERSTATEBASE.CPP|C:\K020G1385\CG4\CG4_1\EFFECT\EFFEKSEER\DEV\CPP\EFFEKSEERRENDERERCOMMON\EFFEKSEERRENDERER.RIBBONRENDERERBASE.CPP|C:\K020G1385\CG4\CG4_1\EFFECT\EFFEKSEER\DEV\CPP\EFFEKSEERRENDERERCOMMON\EFFEKSEERRENDERER.RINGRENDERERBASE.CPP|C:\K020G1385\CG4\CG4_1\EFFECT\EFFEKSEER\DEV\CPP\EFFEKSEERRENDERERCOMMON\EFFEKSEERRENDERER.SPRITERENDERERBASE.CPP|C:\K020G1385\CG4\CG4_1\EFFECT\EFFEKSEER\DEV\CPP\EFFEKSEERRENDERERCOMMON\EFFEKSEERRENDERER.TGATEXTURELOADER.CPP|C:\K020G1385\CG4\CG4_1\EFFECT\EFFEKSEER\DEV\CPP\EFFEKSEERRENDERERCOMMON\EFFEKSEERRENDERER.TRACKRENDERERBASE.CPP|C:\K020G1385\CG4\CG4_1\EFFECT\EFFEKSEER\DEV\CPP\EFFEKSEERRENDERERCOMMON\EFFEKSEERRENDERER.VERTEXBUFFERBASE.CPP|C:\K020G1385\CG4\CG4_1\EFFECT\EFFEKSEER\DEV\CPP\EFFEKSEERRENDERERCOMMON\MODELLOADER.CPP|C:\K020G1385\CG4\CG4_1\EFFECT\EFFEKSEER\DEV\CPP\EFFEKSEERRENDERERCOMMON\TEXTURELOADER.CPP|C:\K020G1385\CG4\CG4_1\EFFECT\EFFEKSEER\DEV\CPP\EFFEKSEERRENDERERDX12\EFFEKSEERRENDERER\EFFEKSEERRENDERERDX12.RENDERER.CPP|C:\K020G1385\CG4\CG4_1\EFFECT\EFFEKSEER\DEV\CPP\EFFEKSEERRENDERERLLGI\COMMON.CPP|C:\K020G1385\CG4\CG4_1\EFFECT\EFFEKSEER\DEV\CPP\EFFEKSEERRENDERERLLGI\EFFEKSEERRENDERERLLGI.DEVICEOBJECT.CPP|C:\K020G1385\CG4\CG4_1\EFFECT\EFFEKSEER\DEV\CPP\EFFEKSEERRENDERERLLGI\EFFEKSEERRENDERERLLGI.INDEXBUFFER.CPP|C:\K020G1385\CG4\CG4_1\EFFECT\EFFEKSEER\DEV\CPP\EFFEKSEERRENDERERLLGI\EFFEKSEERRENDERERLLGI.MATERIALLOADER.CPP|C:\K020G1385\CG4\CG4_1\EFFECT\EFFEKSEER\DEV\CPP\EFFEKSEERRENDERERLLGI\EFFEKSEERRENDERERLLGI.MODELRENDERER.CPP|C:\K020G1385\CG4\CG4_1\EFFECT\EFFEKSEER\DEV\CPP\EFFEKSEERRENDERERLLGI\EFFEKSEERRENDERERLLGI.RENDERER.CPP|C:\K020G1385\CG4\CG4_1\EFFECT\EFFEKSEER\DEV\CPP\EFFEKSEERRENDERERLLGI\EFFEKSEERRENDERERLLGI.RENDERSTATE.CPP|C:\K020G1385\CG4\CG4_1\EFFECT\EFFEKSEER\DEV\CPP\EFFEKSEERRENDERERLLGI\EFFEKSEERRENDERERLLGI.SHADER.CPP|C:\K020G1385\CG4\CG4_1\EFFECT\EFFEKSEER\DEV\CPP\EFFEKSEERRENDERERLLGI\EFFEKSEERRENDERERLLGI.VERTEXBUFFER.CPP|C:\K020G1385\CG4\CG4_1\EFFECT\EFFEKSEER\DEV\CPP\EFFEKSEERRENDERERLLGI\GRAPHICSDEVICE.CPP
C:\K020G1385\CG4\CG4_1\EFFECT\EFFEKSEER\DEV\CPP\EFFEKSEERRENDERERDX12\EFFEKSEERRENDERERDX12.DIR\RELEASE\EFFEKSEERRENDERER.RENDERSTATEBASE.OBJ
C:\K020G1385\CG4\CG4_1\EFFECT\EFFEKSEER\DEV\CPP\EFFEKSEERRENDERERDX12\EFFEKSEERRENDERERDX12.DIR\RELEASE\EFFEKSEERRENDERERDX12.RENDERER.OBJ
C:\K020G1385\CG4\CG4_1\EFFECT\EFFEKSEER\DEV\CPP\EFFEKSEERRENDERERDX12\EFFEKSEERRENDERERDX12.DIR\RELEASE\EFFEKSEERRENDERER.RENDERER.OBJ
C:\K020G1385\CG4\CG4_1\EFFECT\EFFEKSEER\DEV\CPP\EFFEKSEERRENDERERDX12\EFFEKSEERRENDERERDX12.DIR\RELEASE\MODELLOADER.OBJ
C:\K020G1385\CG4\CG4_1\EFFECT\EFFEKSEER\DEV\CPP\EFFEKSEERRENDERERDX12\EFFEKSEERRENDERERDX12.DIR\RELEASE\EFFEKSEERRENDERERLLGI.RENDERSTATE.OBJ
C:\K020G1385\CG4\CG4_1\EFFECT\EFFEKSEER\DEV\CPP\EFFEKSEERRENDERERDX12\EFFEKSEERRENDERERDX12.DIR\RELEASE\EFFEKSEERRENDERER.RIBBONRENDERERBASE.OBJ
C:\K020G1385\CG4\CG4_1\EFFECT\EFFEKSEER\DEV\CPP\EFFEKSEERRENDERERDX12\EFFEKSEERRENDERERDX12.DIR\RELEASE\SHADERGENERATOR.OBJ
C:\K020G1385\CG4\CG4_1\EFFECT\EFFEKSEER\DEV\CPP\EFFEKSEERRENDERERDX12\EFFEKSEERRENDERERDX12.DIR\RELEASE\EFFEKSEERRENDERER.SPRITERENDERERBASE.OBJ
C:\K020G1385\CG4\CG4_1\EFFECT\EFFEKSEER\DEV\CPP\EFFEKSEERRENDERERDX12\EFFEKSEERRENDERERDX12.DIR\RELEASE\COMMON.OBJ
C:\K020G1385\CG4\CG4_1\EFFECT\EFFEKSEER\DEV\CPP\EFFEKSEERRENDERERDX12\EFFEKSEERRENDERERDX12.DIR\RELEASE\EFFEKSEERRENDERER.TGATEXTURELOADER.OBJ
C:\K020G1385\CG4\CG4_1\EFFECT\EFFEKSEER\DEV\CPP\EFFEKSEERRENDERERDX12\EFFEKSEERRENDERERDX12.DIR\RELEASE\EFFEKSEERRENDERER.VERTEXBUFFERBASE.OBJ
C:\K020G1385\CG4\CG4_1\EFFECT\EFFEKSEER\DEV\CPP\EFFEKSEERRENDERERDX12\EFFEKSEERRENDERERDX12.DIR\RELEASE\EFFEKSEERRENDERERLLGI.MODELRENDERER.OBJ
C:\K020G1385\CG4\CG4_1\EFFECT\EFFEKSEER\DEV\CPP\EFFEKSEERRENDERERDX12\EFFEKSEERRENDERERDX12.DIR\RELEASE\EFFEKSEERRENDERER.RENDERER_IMPL.OBJ
C:\K020G1385\CG4\CG4_1\EFFECT\EFFEKSEER\DEV\CPP\EFFEKSEERRENDERERDX12\EFFEKSEERRENDERERDX12.DIR\RELEASE\EFFEKSEERMATERIALCOMPILERDX12.OBJ
C:\K020G1385\CG4\CG4_1\EFFECT\EFFEKSEER\DEV\CPP\EFFEKSEERRENDERERDX12\EFFEKSEERRENDERERDX12.DIR\RELEASE\EFFEKSEERRENDERER.RINGRENDERERBASE.OBJ
C:\K020G1385\CG4\CG4_1\EFFECT\EFFEKSEER\DEV\CPP\EFFEKSEERRENDERERDX12\EFFEKSEERRENDERERDX12.DIR\RELEASE\SHADERGENERATORCOMMON.OBJ
C:\K020G1385\CG4\CG4_1\EFFECT\EFFEKSEER\DEV\CPP\EFFEKSEERRENDERERDX12\EFFEKSEERRENDERERDX12.DIR\RELEASE\GRAPHICSDEVICE.OBJ
C:\K020G1385\CG4\CG4_1\EFFECT\EFFEKSEER\DEV\CPP\EFFEKSEERRENDERERDX12\EFFEKSEERRENDERERDX12.DIR\RELEASE\EFFEKSEERRENDERER.INDEXBUFFERBASE.OBJ
C:\K020G1385\CG4\CG4_1\EFFECT\EFFEKSEER\DEV\CPP\EFFEKSEERRENDERERDX12\EFFEKSEERRENDERERDX12.DIR\RELEASE\EFFEKSEERRENDERER.TRACKRENDERERBASE.OBJ
C:\K020G1385\CG4\CG4_1\EFFECT\EFFEKSEER\DEV\CPP\EFFEKSEERRENDERERDX12\EFFEKSEERRENDERERDX12.DIR\RELEASE\EFFEKSEERRENDERERLLGI.SHADER.OBJ
C:\K020G1385\CG4\CG4_1\EFFECT\EFFEKSEER\DEV\CPP\EFFEKSEERRENDERERDX12\EFFEKSEERRENDERERDX12.DIR\RELEASE\EFFEKSEERRENDERER.DDSTEXTURELOADER.OBJ
C:\K020G1385\CG4\CG4_1\EFFECT\EFFEKSEER\DEV\CPP\EFFEKSEERRENDERERDX12\EFFEKSEERRENDERERDX12.DIR\RELEASE\TEXTURELOADER.OBJ
C:\K020G1385\CG4\CG4_1\EFFECT\EFFEKSEER\DEV\CPP\EFFEKSEERRENDERERDX12\EFFEKSEERRENDERERDX12.DIR\RELEASE\EFFEKSEERRENDERERLLGI.RENDERER.OBJ
C:\K020G1385\CG4\CG4_1\EFFECT\EFFEKSEER\DEV\CPP\EFFEKSEERRENDERERDX12\EFFEKSEERRENDERERDX12.DIR\RELEASE\EFFEKSEERRENDERER.COMMONUTILS.OBJ
C:\K020G1385\CG4\CG4_1\EFFECT\EFFEKSEER\DEV\CPP\EFFEKSEERRENDERERDX12\EFFEKSEERRENDERERDX12.DIR\RELEASE\EFFEKSEERRENDERERLLGI.INDEXBUFFER.OBJ
C:\K020G1385\CG4\CG4_1\EFFECT\EFFEKSEER\DEV\CPP\EFFEKSEERRENDERERDX12\EFFEKSEERRENDERERDX12.DIR\RELEASE\EFFEKSEERRENDERERLLGI.VERTEXBUFFER.OBJ
C:\K020G1385\CG4\CG4_1\EFFECT\EFFEKSEER\DEV\CPP\EFFEKSEERRENDERERDX12\EFFEKSEERRENDERERDX12.DIR\RELEASE\EFFEKSEERRENDERER.PNGTEXTURELOADER.OBJ
C:\K020G1385\CG4\CG4_1\EFFECT\EFFEKSEER\DEV\CPP\EFFEKSEERRENDERERDX12\EFFEKSEERRENDERERDX12.DIR\RELEASE\EFFEKSEERRENDERERLLGI.MATERIALLOADER.OBJ
C:\K020G1385\CG4\CG4_1\EFFECT\EFFEKSEER\DEV\CPP\EFFEKSEERRENDERERDX12\EFFEKSEERRENDERERDX12.DIR\RELEASE\EFFEKSEERRENDERER.MODELRENDERERBASE.OBJ
C:\K020G1385\CG4\CG4_1\EFFECT\EFFEKSEER\DEV\CPP\EFFEKSEERRENDERERDX12\EFFEKSEERRENDERERDX12.DIR\RELEASE\EFFEKSEERRENDERERLLGI.DEVICEOBJECT.OBJ
